\relax 
\@writefile{toc}{\contentsline {section}{\numberline {1}Disclaimer}{1}}
\@writefile{toc}{\contentsline {section}{\numberline {2}Executive Summary}{1}}
\@writefile{toc}{\contentsline {section}{\numberline {3}Owner's Background}{1}}
\citation{ref:value:evolution:1}
\citation{ref:value:evolution:2}
\citation{ref:value:evolution:2}
\citation{ref:value:evolution:1}
\citation{ref:value:evolution:1}
\citation{ref:value:navigators:evolution:1}
\citation{ref:value:navigators:evolution:1}
\citation{ref:value:navigators:problems:1}
\citation{ref:value:navigators:problems:1}
\citation{ref:technology:satnavs:need:1}
\citation{ref:value:navigators:standalone:1}
\citation{ref:value:navigators:standalone:1}
\citation{ref:value:navigators:problems:1}
\citation{ref:technology:satnavs:need:3}
\citation{ref:value:navigators:standalone:1}
\citation{ref:value:navigators:problems:1}
\citation{ref:value:navigators:problems:1}
\citation{ref:value:navigators:appearance:1}
\citation{ref:value:navigators:problems:1}
\citation{ref:value:navigators:problems:1}
\citation{ref:technology:satnavs:need:2}
\citation{ref:value:navigators:problems:1}
\citation{ref:product:limitations:safety:tips:1}
\citation{ref:product:limitations:safety:gov:1}
\citation{ref:product:limitations:safety:gov:2}
\citation{ref:product:safety:surveys:2}
\citation{ref:product:safety:surveys:3}
\citation{ref:product:safety:surveys:1}
\citation{ref:market:age:status:gender:1}
\@writefile{toc}{\contentsline {section}{\numberline {4}Customer Need and Pains}{2}}
\@writefile{toc}{\contentsline {subsection}{\numberline {4.1}Research Problem}{2}}
\@writefile{toc}{\contentsline {subsubsection}{\numberline {4.1.1}Integration and Portability}{2}}
\@writefile{toc}{\contentsline {subsubsection}{\numberline {4.1.2}Information Presentation}{2}}
\citation{ref:market:age:status:gender:1}
\citation{ref:market:age:status:gender:1}
\citation{ref:safety:algorithm:routing:bad:1}
\citation{ref:market:age:status:gender:1}
\citation{ref:market:age:status:gender:1}
\@writefile{toc}{\contentsline {subsubsection}{\numberline {4.1.3}Distraction and Safety}{3}}
\@writefile{toc}{\contentsline {subsubsection}{\numberline {4.1.4}Routing Efficiency and Safety}{3}}
\@writefile{toc}{\contentsline {section}{\numberline {5}Products and Services}{3}}
\@writefile{lof}{\contentsline {figure}{\numberline {1}{\ignorespaces Aether Drive's operation as seen from driver's Perspective. Shows the Augmented Reality HUD in action, indicating path with chevrons and other utility functionality such as pothole detection.\relax }}{3}}
\providecommand*\caption@xref[2]{\@setref\relax\@undefined{#1}}
\newlabel{fig:product:1}{{1}{3}}
\citation{ref:technology:variety:value:1}
\citation{ref:technology:acceptance:1}
\citation{ref:market:age:status:gender:1}
\@writefile{toc}{\contentsline {subsection}{\numberline {5.1}Features}{4}}
\@writefile{toc}{\contentsline {subsubsection}{\numberline {5.1.1}Integration and Portability}{4}}
\@writefile{toc}{\contentsline {subsubsection}{\numberline {5.1.2}Information Presentation}{4}}
\@writefile{toc}{\contentsline {subsubsection}{\numberline {5.1.3}Distraction and Safety}{4}}
\@writefile{toc}{\contentsline {subsubsection}{\numberline {5.1.4}Routing Efficiency and Safety}{4}}
\@writefile{toc}{\contentsline {subsubsection}{\numberline {5.1.5}Options}{4}}
\citation{ref:product:limitations:safety:gov:1}
\citation{ref:product:limitations:safety:gov:2}
\citation{ref:product:limitations:safety:gov:1}
\citation{ref:product:limitations:safety:gov:2}
\citation{ref:market:age:status:gender:1}
\citation{ref:technology:acceptance:1}
\citation{ref:product:limitations:acceptance:surveys:2}
\citation{ref:product:limitations:acceptance:book:1}
\citation{ref:market:age:status:gender:1}
\citation{ref:market:age:status:gender:1}
\citation{ref:market:1}
\citation{ref:market:2}
\citation{ref:market:1}
\@writefile{toc}{\contentsline {subsection}{\numberline {5.2}Limitations}{5}}
\@writefile{toc}{\contentsline {subsection}{\numberline {5.3}Safety Regulations}{5}}
\@writefile{toc}{\contentsline {subsubsection}{\numberline {5.3.1}Adaptation by the Market}{5}}
\@writefile{toc}{\contentsline {section}{\numberline {6}The Market}{5}}
\newlabel{sec:market}{{6}{5}}
\@writefile{toc}{\contentsline {subsection}{\numberline {6.1}Global Market Overview}{5}}
\citation{ref:market:3}
\citation{ref:market:1}
\citation{ref:market:4}
\citation{ref:market:5}
\citation{ref:market:6}
\citation{ref:market:7}
\citation{ref:market:7}
\@writefile{lof}{\contentsline {figure}{\numberline {2}{\ignorespaces Shipments of GNSS Devices by Application\relax }}{6}}
\newlabel{fig:market:1}{{2}{6}}
\@writefile{toc}{\contentsline {subsection}{\numberline {6.2}Target Market Analysis}{6}}
\@writefile{toc}{\contentsline {subsubsection}{\numberline {6.2.1}Standalone Device}{6}}
\@writefile{toc}{\contentsline {subsubsection}{\numberline {6.2.2}In Vehicle System}{6}}
\citation{ref:market:8}
\citation{ref:market:8}
\@writefile{lof}{\contentsline {figure}{\numberline {3}{\ignorespaces Global Car Manufacturer Revenue 2015\cite  {ref:market:7}\relax }}{7}}
\newlabel{fig:market:2}{{3}{7}}
\@writefile{lof}{\contentsline {figure}{\numberline {4}{\ignorespaces Global Luxury Car Brand Sales 2017\cite  {ref:market:8}\relax }}{7}}
\newlabel{fig:market:3}{{4}{7}}
\@writefile{toc}{\contentsline {subsection}{\numberline {6.3}Forecasted Sales}{7}}
\@writefile{toc}{\contentsline {subsubsection}{\numberline {6.3.1}Standalone Product}{7}}
\citation{ref:market:9}
\citation{ref:market:3}
\citation{ref:competitor:1}
\citation{ref:competitor:2}
\citation{ref:competitor:3}
\citation{ref:competitor:4}
\@writefile{lof}{\contentsline {figure}{\numberline {5}{\ignorespaces Strandalone Device Sales Forecast\relax }}{8}}
\newlabel{fig:market:4}{{5}{8}}
\@writefile{toc}{\contentsline {subsubsection}{\numberline {6.3.2}In Vehicle System}{8}}
\@writefile{lof}{\contentsline {figure}{\numberline {6}{\ignorespaces Integrated Device Sales Forecast\relax }}{8}}
\newlabel{fig:market:5}{{6}{8}}
\@writefile{toc}{\contentsline {section}{\numberline {7}Competitor Analysis}{8}}
\@writefile{toc}{\contentsline {subsection}{\numberline {7.1}Intensity of Competitive Rivalry}{8}}
\citation{ref:competitor:6}
\citation{ref:competitor:5}
\citation{ref:competitor:1}
\@writefile{lof}{\contentsline {figure}{\numberline {7}{\ignorespaces Comparison with Existing Technology\relax }}{9}}
\newlabel{fig:competitor:1}{{7}{9}}
\@writefile{toc}{\contentsline {subsection}{\numberline {7.2}Threat of New Substitute}{9}}
\@writefile{toc}{\contentsline {subsection}{\numberline {7.3}Threat of New Entrants}{9}}
\citation{ref:marketing:1}
\@writefile{toc}{\contentsline {subsection}{\numberline {7.4}Bargaining Power of Suppliers}{10}}
\@writefile{toc}{\contentsline {subsection}{\numberline {7.5}Bargaining Power of Customers}{10}}
\@writefile{toc}{\contentsline {section}{\numberline {8}Marketing Strategy}{10}}
\@writefile{toc}{\contentsline {subsection}{\numberline {8.1}Overview}{10}}
\@writefile{toc}{\contentsline {subsection}{\numberline {8.2}Advertisement}{10}}
\@writefile{toc}{\contentsline {subsubsection}{\numberline {8.2.1}Online advertisement}{10}}
\citation{ref:marketing:2}
\citation{ref:operations:2}
\@writefile{toc}{\contentsline {subsubsection}{\numberline {8.2.2}Traditional Advertisement}{11}}
\@writefile{toc}{\contentsline {subsubsection}{\numberline {8.2.3}Exhibitions \& Evaluation by Journalists}{11}}
\@writefile{toc}{\contentsline {subsection}{\numberline {8.3}Distribution Network}{11}}
\@writefile{toc}{\contentsline {subsubsection}{\numberline {8.3.1}Online Retailers}{11}}
\@writefile{toc}{\contentsline {subsubsection}{\numberline {8.3.2}Physical Stores}{11}}
\citation{ref:operations:17}
\citation{ref:operations:18}
\citation{ref:operations:19}
\citation{ref:operations:20}
\citation{ref:operations:21}
\citation{ref:operations:22}
\citation{ref:operations:6}
\citation{ref:operations:25}
\@writefile{toc}{\contentsline {section}{\numberline {9}Operations and Logistics}{12}}
\@writefile{toc}{\contentsline {subsection}{\numberline {9.1}Manufacturing Strategy}{12}}
\@writefile{toc}{\contentsline {subsection}{\numberline {9.2}Supply Chain}{12}}
\@writefile{lof}{\contentsline {figure}{\numberline {8}{\ignorespaces Supply Chain Proposal\relax }}{12}}
\newlabel{fig:operations:1}{{8}{12}}
\@writefile{toc}{\contentsline {subsection}{\numberline {9.3}Lead Time}{12}}
\citation{ref:operations:27}
\citation{ref:operations:27}
\citation{ref:operations:26}
\citation{ref:operations:23}
\@writefile{toc}{\contentsline {subsection}{\numberline {9.4}Product Life Cycle}{13}}
\@writefile{lof}{\contentsline {figure}{\numberline {9}{\ignorespaces Product Life Cycle\cite  {ref:operations:27}\relax }}{13}}
\newlabel{fig:operations:2}{{9}{13}}
\@writefile{toc}{\contentsline {subsection}{\numberline {9.5}Company Facilities}{13}}
\citation{ref:operations:24}
\@writefile{lof}{\contentsline {figure}{\numberline {10}{\ignorespaces Employee Counts by Year\relax }}{14}}
\newlabel{fig:operations:3}{{10}{14}}
\@writefile{toc}{\contentsline {subsection}{\numberline {9.6}Customer Support and Warranty}{14}}
\@writefile{toc}{\contentsline {section}{\numberline {10}Costs and Pricing}{14}}
\@writefile{toc}{\contentsline {subsection}{\numberline {10.1}Costs}{14}}
\@writefile{toc}{\contentsline {subsubsection}{\numberline {10.1.1}Product Capital Cost}{14}}
\citation{ref:costs:1}
\citation{ref:costs:2}
\citation{ref:costs:3}
\citation{ref:costs:4}
\citation{ref:costs:5}
\@writefile{lof}{\contentsline {figure}{\numberline {11}{\ignorespaces Cost Breakdown of Components\relax }}{15}}
\newlabel{fig:costs:1}{{11}{15}}
\@writefile{toc}{\contentsline {subsubsection}{\numberline {10.1.2}Equipment and Office Cost}{15}}
\@writefile{toc}{\contentsline {subsubsection}{\numberline {10.1.3}Marketing Cost}{15}}
\@writefile{lof}{\contentsline {figure}{\numberline {12}{\ignorespaces Advertising Costs Breakdown\relax }}{15}}
\newlabel{fig:costs:2}{{12}{15}}
\citation{ref:costs:6}
\citation{ref:legal:name}
\citation{ref:legal:company:type}
\citation{ref:legal:corporation:tax}
\citation{ref:legal:overview}
\citation{ref:legal:patent:cost:1}
\citation{ref:legal:patent:cost:1}
\citation{ref:legal:patent:cost:1}
\citation{ref:legal:nda}
\@writefile{toc}{\contentsline {subsubsection}{\numberline {10.1.4}Salaries}{16}}
\@writefile{toc}{\contentsline {subsection}{\numberline {10.2}Pricing}{16}}
\@writefile{toc}{\contentsline {section}{\numberline {11}Legal Requirements}{16}}
\@writefile{toc}{\contentsline {subsection}{\numberline {11.1}Registering Company}{16}}
\@writefile{toc}{\contentsline {subsection}{\numberline {11.2}Registering Intellectual Property}{16}}
\citation{ref:financial:2}
\@writefile{toc}{\contentsline {section}{\numberline {12}Financial Forecast}{17}}
\@writefile{toc}{\contentsline {subsection}{\numberline {12.1}Break Even Analysis}{17}}
\@writefile{lof}{\contentsline {figure}{\numberline {13}{\ignorespaces Revenue and Costs over Time\relax }}{17}}
\newlabel{fig:financial:1}{{13}{17}}
\@writefile{toc}{\contentsline {subsection}{\numberline {12.2}Investment and Returns}{17}}
\citation{ref:financial:1}
\citation{ref:financial:3}
\citation{ref:financial:4}
\@writefile{lof}{\contentsline {figure}{\numberline {14}{\ignorespaces Inverstment and Value\relax }}{18}}
\newlabel{fig:financial:2}{{14}{18}}
\@writefile{toc}{\contentsline {section}{\numberline {13}Backup Plan}{18}}
\citation{ref:backup}
\@writefile{toc}{\contentsline {subsection}{\numberline {13.1}Short Term}{19}}
\@writefile{toc}{\contentsline {subsection}{\numberline {13.2}Long Term}{19}}
\bibcite{ref:value:evolution:1}{1}
\bibcite{ref:value:evolution:2}{2}
\bibcite{ref:value:navigators:evolution:1}{3}
\bibcite{ref:value:navigators:standalone:1}{4}
\bibcite{ref:product:limitations:safety:tips:1}{5}
\bibcite{ref:product:limitations:safety:gov:2}{6}
\bibcite{ref:product:limitations:safety:gov:1}{7}
\bibcite{ref:product:safety:surveys:1}{8}
\bibcite{ref:product:safety:surveys:2}{9}
\bibcite{ref:product:safety:surveys:3}{10}
\bibcite{ref:product:limitations:acceptance:surveys:2}{11}
\bibcite{ref:product:limitations:acceptance:book:1}{12}
\bibcite{ref:market:age:status:gender:1}{13}
\bibcite{ref:safety:algorithm:routing:bad:1}{14}
\bibcite{ref:value:navigators:problems:1}{15}
\bibcite{ref:value:navigators:appearance:1}{16}
\bibcite{ref:technology:acceptance:1}{17}
\bibcite{ref:technology:variety:value:1}{18}
\bibcite{ref:technology:satnavs:need:1}{19}
\bibcite{ref:technology:satnavs:need:2}{20}
\bibcite{ref:technology:satnavs:need:3}{21}
\bibcite{ref:legal:name}{22}
\bibcite{ref:legal:company:type}{23}
\bibcite{ref:legal:corporation:tax}{24}
\bibcite{ref:legal:overview}{25}
\bibcite{ref:legal:nda}{26}
\bibcite{ref:legal:patent:cost:1}{27}
\bibcite{ref:backup}{28}
\bibcite{ref:market:1}{29}
\bibcite{ref:market:2}{30}
\bibcite{ref:market:3}{31}
\bibcite{ref:market:4}{32}
\bibcite{ref:market:5}{33}
\bibcite{ref:market:6}{34}
\bibcite{ref:market:7}{35}
\bibcite{ref:market:8}{36}
\bibcite{ref:market:9}{37}
\bibcite{ref:competitor:1}{38}
\bibcite{ref:competitor:2}{39}
\bibcite{ref:competitor:3}{40}
\bibcite{ref:competitor:4}{41}
\bibcite{ref:competitor:5}{42}
\bibcite{ref:competitor:6}{43}
\bibcite{ref:marketing:1}{44}
\bibcite{ref:marketing:2}{45}
\bibcite{ref:operations:1}{46}
\bibcite{ref:operations:2}{47}
\bibcite{ref:operations:3}{48}
\bibcite{ref:operations:4}{49}
\bibcite{ref:operations:5}{50}
\bibcite{ref:operations:6}{51}
\bibcite{ref:operations:7}{52}
\bibcite{ref:operations:8}{53}
\bibcite{ref:operations:9}{54}
\bibcite{ref:operations:10}{55}
\bibcite{ref:operations:11}{56}
\bibcite{ref:operations:12}{57}
\bibcite{ref:operations:13}{58}
\bibcite{ref:operations:14}{59}
\bibcite{ref:operations:15}{60}
\bibcite{ref:operations:16}{61}
\bibcite{ref:operations:17}{62}
\bibcite{ref:operations:18}{63}
\bibcite{ref:operations:19}{64}
\bibcite{ref:operations:20}{65}
\bibcite{ref:operations:21}{66}
\bibcite{ref:operations:22}{67}
\bibcite{ref:operations:23}{68}
\bibcite{ref:operations:24}{69}
\bibcite{ref:operations:25}{70}
\bibcite{ref:operations:26}{71}
\bibcite{ref:operations:27}{72}
\bibcite{ref:costs:1}{73}
\bibcite{ref:costs:2}{74}
\bibcite{ref:costs:3}{75}
\bibcite{ref:costs:4}{76}
\bibcite{ref:costs:5}{77}
\bibcite{ref:costs:6}{78}
\bibcite{ref:financial:1}{79}
\bibcite{ref:financial:2}{80}
\bibcite{ref:financial:3}{81}
\bibcite{ref:financial:4}{82}
